<svg width="48" height="48" viewBox="0 0 48 48" fill="none" xmlns="http://www.w3.org/2000/svg">
<path fill-rule="evenodd" clip-rule="evenodd" d="M32 14C32 9.58172 28.4183 6 24 6C19.5818 6 16 9.58172 16 14C16 18.4183 19.5818 22 24 22C28.4183 22 32 18.4183 32 14ZM8.59387 36.6668C8.59387 32.242 12.1003 28.5938 16.5001 28.5938H31.5001C35.9 28.5938 39.4064 32.242 39.4064 36.6668V40.0001C39.4064 40.7767 38.7768 41.4063 38.0001 41.4063H10.0001C9.22347 41.4063 8.59387 40.7767 8.59387 40.0001V36.6668Z" fill="white"/>
</svg>
